5
12 9
12 9
12 9
12 9
12 9

6
17 13
17 13
17 13
17 13
17 13
17 13

5
7 10
7 10
7 10
7 10
7 10

6
2 19
2 19
2 19
2 19
2 19
2 19

7
6 22
6 22
6 22
6 22
6 22
6 22
6 22

8
29 50
29 50
29 50
29 50
29 50
29 50
29 50
29 50

7
25 22
25 22
25 22
25 22
25 22
25 22
25 22

9
53 32
53 32
53 32
53 32
53 32
53 32
53 32
53 32
53 32

10
47 24
47 24
47 24
47 24
47 24
47 24
47 24
47 24
47 24
47 24

12
29 59
29 59
29 59
29 59
29 59
29 59
29 59
29 59
29 59
29 59
29 59
29 59

10
24 41
24 41
24 41
24 41
24 41
24 41
24 41
24 41
24 41
24 41

